[HERO]
DependencyOr=Hamg,Hblm,Hmkg,Hpal,Obla,Ofar,Oshd,Otch,Edem,Ekee,Emoo,Ewar,Ucrl,Udea,Udre,Ulic,Npbm,Nbrn,Nngs,Nplh,Nbst
Name=A Hero
[Misc]
BoneDecayTime=25
ConstructionRefundRate=1
DamageBonusHero=1.10,1.10,1.10,0.60,1.10,0.60,0.40,1.10
DamageBonusMagic=1.00,0.70,1.75,0.40,1.00,0.60,0.25,1.05
DamageBonusNormal=0.70,1.75,1.00,0.50,1.00,0.60,0.25,1.05
DamageBonusPierce=1.75,1.00,0.70,0.45,1.00,0.60,0.25,1.05
DamageBonusSiege=0.70,0.70,0.70,1.60,0.80,0.40,0.20,1.00
DamageBonusSpells=1.00,1.00,1.00,1.00,1.00,0.70,0.25,1.00
DefendDeflection=1
DisplayBuildingStatus=1
FoodCeiling=3000
FrostAttackSpeedDecrease=0.3
FrostMoveSpeedDecrease=0.3
GuardDistance=999999
GuardReturnTime=-1
MaxGuardDistance=999999
PawnItemRate=0.3
StructureDecayTime=0.1
UpgradeRefundRate=1
UpkeepGoldTax=0.00,0.30,0.60,0.60,0.60,0.60,0.60,0.60
UpkeepLumberTax=0.00,0.00,0.00,0.00,0.00,0.00,0.00,0.00
UpkeepUsage=10000,10000,10000,10000,10000,10000,10000,10000
