//;~ Warcraft 3:All Offsets for 1.26a

//;~ Reveal Units on Main Map
Game.dll + 0x3A14F0 = 0x87 - 0x3A2030 = 0x87
Game.dll + 0x3A14F1 = 0xDB - 0x3A2031 = 0xDB
Game.dll + 0x3A159B = 0x87 - 0x3A20DB = 0x87
Game.dll + 0x3A159C = 0xDB - 0x3A20DC = 0xDB

//;~ Remove FOG on Main Map
Game.dll + 0x74CA1A = 0x15 - 0x74D1BA = 0x15
Game.dll + 0x74CA1B = 0x50 - 0x74D1BB = 0x70

//;~ Reveal Units on Mini Map
Game.dll + 0x36143B = 0x33
Game.dll + 0x36143C = 0xC0
Game.dll + 0x36143D = 0x90
Game.dll + 0x36143E = 0x90
Game.dll + 0x36143F = 0x90

//;~ Remove FOG on Mini Map
Game.dll + 0x356525 = 0x87
Game.dll + 0x356526 = 0xDB

//;~ Enable Trade
Game.dll + 0x34DDA2 = 0xB8
Game.dll + 0x34DDA3 = 0xC8
Game.dll + 0x34DDA4 = 0x00
Game.dll + 0x34DDA5 = 0x00
Game.dll + 0x34DDA7 = 0x90
Game.dll + 0x34DDAA = 0xB8
Game.dll + 0x34DDAB = 0x64
Game.dll + 0x34DDAC = 0x00
Game.dll + 0x34DDAD = 0x00
Game.dll + 0x34DDAF = 0x90

//;~ Make Units Clickable
Game.dll + 0x28519C = 0x87
Game.dll + 0x28519D = 0xDB
Game.dll + 0x93645E = 0x1C
Game.dll + 0x93645F = 0x45

//;~ Reveal Illusions
Game.dll + 0x282A5C = 0x90
Game.dll + 0x282A5D = 0x40
Game.dll + 0x282A5E = 0xC3

//;~ Reveal Invisibles
Game.dll + 0x399A98 = 0x71

//;~ Show Runes
Game.dll + 0x3A14DB = 0x71

//;~ Show Skills / Cooldowns
Game.dll + 0x2026DC = 0x87
Game.dll + 0x2026DD = 0xDB
Game.dll + 0x2026DE = 0x87
Game.dll + 0x2026DF = 0xDB
Game.dll + 0x2026E0 = 0x87
Game.dll + 0x2026E1 = 0xDB
Game.dll + 0x28E1DE = 0x71
Game.dll + 0x34F2A8 = 0x87
Game.dll + 0x34F2A9 = 0xDB
Game.dll + 0x34F2E9 = 0x00

//;~ Bypass -ah in DotA Allstars
Game.dll + 0x3C639C = 0xB8
Game.dll + 0x3C63A1 = 0xEB
Game.dll + 0x3CB872 = 0xEB